Warning: could not parse response in line 136: 64\r\n{"data":[],"meta":{"total_pages":0,"current_page":2,"next_page":null,"per_page":50,"total_count":0}}\r\n0\r\n\r\nHTTP/1.1 200 OK\r\nServer: Cowboy\r\nDate: Thu, 30 Nov 2023 10:23:49 GMT\r\nReport-To: {"group":"heroku-nel","max_age":3600,"endpoints":[{"url":"https://nel.heroku.com/reports?ts=1701339830&sid=af571f24-03ee-46d1-9f90-ab9030c2c74c&s=%2FeDFyxnyEGN8KOFqShtBJKQFYYlyImguDxcnCSwGwiU%3D"}]}\r\nReporting-Endpoints: heroku-nel=https://nel.heroku.com/reports?ts=1701339830&sid=af571f24-03ee-46d1-9f90-ab9030c2c74c&s=%2FeDFyxnyEGN8KOFqShtBJKQFYYlyImguDxcnCSwGwiU%3D\r\nNel: {"report_to":"heroku-nel","max_age":3600,"success_fraction":0.005,"failure_fraction":0.05,"response_headers":["Via"]}\r\nConnection: keep-alive\r\nX-Frame-Options: SAMEORIGIN\r\nX-Xss-Protection: 1; mode=block\r\nX-Content-Type-Options: nosniff\r\nX-Download-Options: noopen\r\nX-Permitted-Cross-Domain-Policies: none\r\nReferrer-Policy: strict-origin-when-cross-origin\r\nContent-Type: application/json; charset=utf-8\r\nEtag: W/"ee18769eb17afe9d580ed0eb26565bb3"\r\nCache-Control: max-age=0, private, must-revalidate\r\nX-Request-Id: cc775bcf-f73c-4a7a-b8fa-2e1ad1ebfc5c\r\nX-Runtime: 0.009457\r\nVary: Accept, Origin\r\nTransfer-Encoding: chunked\r\nVia: 1.1 vegur\r\n\r\n5ca\r\n{"data":[{"id":11,"abbreviation":"HOU","city":"Houston","conference":"West","division":"Southwest","full_name":"Houston Rockets","name":"Rockets"},{"id":12,"abbreviation":"IND","city":"Indiana","conference":"East","division":"Central","full_name":"Indiana Pacers","name":"Pacers"},{"id":13,"abbreviation":"LAC","city":"LA","conference":"West","division":"Pacific","full_name":"LA Clippers","name":"Clippers"},{"id":14,"abbreviation":"LAL","city":"Los Angeles","conference":"West","division":"Pacific","full_name":"Los Angeles Lakers","name":"Lakers"},{"id":15,"abbreviation":"MEM","city":"Memphis","conference":"West","division":"Southwest","full_name":"Memphis Grizzlies","name":"Grizzlies"},{"id":16,"abbreviation":"MIA","city":"Miami","conference":"East","division":"Southeast","full_name":"Miami Heat","name":"Heat"},{"id":17,"abbreviation":"MIL","city":"Milwaukee","conference":"East","division":"Central","full_name":"Milwaukee Bucks","name":"Bucks"},{"id":18,"abbreviation":"MIN","city":"Minnesota","conference":"West","division":"Northwest","full_name":"Minnesota Timberwolves","name":"Timberwolves"},{"id":19,"abbreviation":"NOP","city":"New Orleans","conference":"West","division":"Southwest","full_name":"New Orleans Pelicans","name":"Pelicans"},{"id":20,"abbreviation":"NYK","city":"New York","conference":"East","division":"Atlantic","full_name":"New York Knicks","name":"Knicks"}],"meta":{"total_pages":5,"current_page":2,"next_page":3,"per_page":10,"total_count":45}}\r\n0\r\n\r\n
Warning: could not parse response in line 218: 114\r\n{"id":1,"first_name":"Alex","height_feet":6,"height_inches":6,"last_name":"Abrines","position":"G","team":{"id":21,"abbreviation":"OKC","city":"Oklahoma City","conference":"West","division":"Northwest","full_name":"Oklahoma City Thunder","name":"Thunder"},"weight_pounds":200}\r\n0\r\n\r\nHTTP/1.1 200 OK\r\nServer: Cowboy\r\nDate: Thu, 30 Nov 2023 10:24:51 GMT\r\nReport-To: {"group":"heroku-nel","max_age":3600,"endpoints":[{"url":"https://nel.heroku.com/reports?ts=1701339891&sid=af571f24-03ee-46d1-9f90-ab9030c2c74c&s=l76bw3HW3bwrtb7v5NqkFEX42pKHlPchzbUQMBRxUSY%3D"}]}\r\nReporting-Endpoints: heroku-nel=https://nel.heroku.com/reports?ts=1701339891&sid=af571f24-03ee-46d1-9f90-ab9030c2c74c&s=l76bw3HW3bwrtb7v5NqkFEX42pKHlPchzbUQMBRxUSY%3D\r\nNel: {"report_to":"heroku-nel","max_age":3600,"success_fraction":0.005,"failure_fraction":0.05,"response_headers":["Via"]}\r\nConnection: keep-alive\r\nX-Frame-Options: SAMEORIGIN\r\nX-Xss-Protection: 1; mode=block\r\nX-Content-Type-Options: nosniff\r\nX-Download-Options: noopen\r\nX-Permitted-Cross-Domain-Policies: none\r\nReferrer-Policy: strict-origin-when-cross-origin\r\nContent-Type: application/json; charset=utf-8\r\nEtag: W/"27a9356e6f256ccbec558d30fb5147e1"\r\nCache-Control: max-age=0, private, must-revalidate\r\nX-Request-Id: b0bd9dd0-ff46-489d-80de-e6fcc88423ec\r\nX-Runtime: 0.007020\r\nVary: Accept, Origin\r\nTransfer-Encoding: chunked\r\nVia: 1.1 vegur\r\n\r\n84\r\n{"id":1,"abbreviation":"ATL","city":"Atlanta","conference":"East","division":"Southeast","full_name":"Atlanta Hawks","name":"Hawks"}\r\n0\r\n\r\n
Warning: could not parse response in line 313: 84\r\n{"id":1,"abbreviation":"ATL","city":"Atlanta","conference":"East","division":"Southeast","full_name":"Atlanta Hawks","name":"Hawks"}\r\n0\r\n\r\nHTTP/1.1 200 OK\r\nServer: Cowboy\r\nDate: Thu, 30 Nov 2023 10:25:51 GMT\r\nReport-To: {"group":"heroku-nel","max_age":3600,"endpoints":[{"url":"https://nel.heroku.com/reports?ts=1701339952&sid=af571f24-03ee-46d1-9f90-ab9030c2c74c&s=Ot6%2FeCNVbkFyvepqYDz%2Fh9aaVGtoyRYl3OYi9v29dYs%3D"}]}\r\nReporting-Endpoints: heroku-nel=https://nel.heroku.com/reports?ts=1701339952&sid=af571f24-03ee-46d1-9f90-ab9030c2c74c&s=Ot6%2FeCNVbkFyvepqYDz%2Fh9aaVGtoyRYl3OYi9v29dYs%3D\r\nNel: {"report_to":"heroku-nel","max_age":3600,"success_fraction":0.005,"failure_fraction":0.05,"response_headers":["Via"]}\r\nConnection: keep-alive\r\nX-Frame-Options: SAMEORIGIN\r\nX-Xss-Protection: 1; mode=block\r\nX-Content-Type-Options: nosniff\r\nX-Download-Options: noopen\r\nX-Permitted-Cross-Domain-Policies: none\r\nReferrer-Policy: strict-origin-when-cross-origin\r\nContent-Type: application/json; charset=utf-8\r\nEtag: W/"e7bc0f7d085db9dd041f4651c47a84ac"\r\nCache-Control: max-age=0, private, must-revalidate\r\nX-Request-Id: f2a7ccc1-5511-40eb-b25c-9c19b0c6f479\r\nX-Runtime: 0.085173\r\nVary: Accept, Origin\r\nTransfer-Encoding: chunked\r\nVia: 1.1 vegur\r\n\r\n123\r\n{"data":[{"games_played":57,"player_id":123,"season":2019,"min":"14:22","fgm":1.09,"fga":3.07,"fg3m":0.37,"fg3a":1.6,"ftm":0.56,"fta":0.65,"oreb":0.32,"dreb":1.0,"reb":1.32,"ast":3.16,"stl":0.35,"blk":0.04,"turnover":1.04,"pf":1.37,"pts":3.11,"fg_pct":0.354,"fg3_pct":0.231,"ft_pct":0.865}]}\r\n0\r\n\r\n
Warning: could not parse response in line 408: 123\r\n{"data":[{"games_played":57,"player_id":123,"season":2019,"min":"14:22","fgm":1.09,"fga":3.07,"fg3m":0.37,"fg3a":1.6,"ftm":0.56,"fta":0.65,"oreb":0.32,"dreb":1.0,"reb":1.32,"ast":3.16,"stl":0.35,"blk":0.04,"turnover":1.04,"pf":1.37,"pts":3.11,"fg_pct":0.354,"fg3_pct":0.231,"ft_pct":0.865}]}\r\n0\r\n\r\nHTTP/1.1 200 OK\r\nServer: Cowboy\r\nDate: Thu, 30 Nov 2023 10:26:52 GMT\r\nReport-To: {"group":"heroku-nel","max_age":3600,"endpoints":[{"url":"https://nel.heroku.com/reports?ts=1701340013&sid=af571f24-03ee-46d1-9f90-ab9030c2c74c&s=o8JXx%2FOB1dcmhNdF1QWkA3UN8yfLzYFZcLwJeEZ6lH0%3D"}]}\r\nReporting-Endpoints: heroku-nel=https://nel.heroku.com/reports?ts=1701340013&sid=af571f24-03ee-46d1-9f90-ab9030c2c74c&s=o8JXx%2FOB1dcmhNdF1QWkA3UN8yfLzYFZcLwJeEZ6lH0%3D\r\nNel: {"report_to":"heroku-nel","max_age":3600,"success_fraction":0.005,"failure_fraction":0.05,"response_headers":["Via"]}\r\nConnection: keep-alive\r\nX-Frame-Options: SAMEORIGIN\r\nX-Xss-Protection: 1; mode=block\r\nX-Content-Type-Options: nosniff\r\nX-Download-Options: noopen\r\nX-Permitted-Cross-Domain-Policies: none\r\nReferrer-Policy: strict-origin-when-cross-origin\r\nContent-Type: application/json; charset=utf-8\r\nEtag: W/"7985a1c6c9aaeb1d7af71cfe90323b78"\r\nCache-Control: max-age=0, private, must-revalidate\r\nX-Request-Id: fd39bda5-826e-4c0f-bd49-475614e0b229\r\nX-Runtime: 0.017060\r\nVary: Accept, Origin\r\nTransfer-Encoding: chunked\r\nVia: 1.1 vegur\r\n\r\n1cf\r\n{"id":1,"date":"2018-10-16 00:00:00 UTC","home_team":{"id":2,"abbreviation":"BOS","city":"Boston","conference":"East","division":"Atlantic","full_name":"Boston Celtics","name":"Celtics"},"home_team_score":105,"period":4,"postseason":false,"season":2018,"status":"Final","time":" ","visitor_team":{"id":23,"abbreviation":"PHI","city":"Philadelphia","conference":"East","division":"Atlantic","full_name":"Philadelphia 76ers","name":"76ers"},"visitor_team_score":87}\r\n0\r\n\r\n
Warning: could not parse response in line 513: 64\r\n{"data":[],"meta":{"total_pages":0,"current_page":1,"next_page":null,"per_page":20,"total_count":0}}\r\n0\r\n\r\nHTTP/1.1 400 Bad Request\r\nServer: Cowboy\r\nDate: Thu, 30 Nov 2023 10:27:53 GMT\r\nReport-To: {"group":"heroku-nel","max_age":3600,"endpoints":[{"url":"https://nel.heroku.com/reports?ts=1701340073&sid=af571f24-03ee-46d1-9f90-ab9030c2c74c&s=%2BTLvn4iOLgQUbRBYO%2BXxx%2BHGzckBT5aMaCsGNusaUBQ%3D"}]}\r\nReporting-Endpoints: heroku-nel=https://nel.heroku.com/reports?ts=1701340073&sid=af571f24-03ee-46d1-9f90-ab9030c2c74c&s=%2BTLvn4iOLgQUbRBYO%2BXxx%2BHGzckBT5aMaCsGNusaUBQ%3D\r\nNel: {"report_to":"heroku-nel","max_age":3600,"success_fraction":0.005,"failure_fraction":0.05,"response_headers":["Via"]}\r\nConnection: keep-alive\r\nContent-Type: application/json; charset=UTF-8\r\nX-Request-Id: de66f54d-cd5d-439e-a893-2dd7d88421d0\r\nX-Runtime: 0.004190\r\nVary: Origin\r\nContent-Length: 36\r\nVia: 1.1 vegur\r\n\r\n{"status":400,"error":"Bad Request"}
